{
  "fields": [
    {
      "type": "TEXT",
      "text": "First Name"
    },
    {
      "type": "TEXT",
      "text": "Middle Name"
    },
    {
      "type": "TEXT",
      "text": "Last Name"
    },
    {
      "type": "NUMBER",
      "text": "Phone Number"
    },
    {
      "type": "TEXT",
      "text": "DOB"
    },
    {
      "type": "LICENSENUMBER",
      "text": "License Number"
    },
    {
      "type": "BUTTON",
      "text": "Submit"
    }
  ]
}